\relax 
\providecommand*{\memsetcounter}[2]{}
\providecommand\babel@aux[2]{}
\@nameuse{bbl@beforestart}
\catcode `"\active 
\babel@aux{british}{}
\@writefile{lof}{\addvspace {10pt}}
\@writefile{lot}{\addvspace {10pt}}
\@writefile{toc}{\contentsline {chapter}{\chapternumberline {1}The Beginning}{2}{}\protected@file@percent }
\@writefile{toc}{\contentsline {section}{\numberline {1.1}Hymn}{3}{}\protected@file@percent }
\@writefile{lof}{\addvspace {10pt}}
\@writefile{lot}{\addvspace {10pt}}
\@writefile{toc}{\contentsline {chapter}{\chapternumberline {2}Psalmody}{4}{}\protected@file@percent }
\@writefile{toc}{\contentsline {section}{\numberline {2.1}Outside Advent and Christmas}{4}{}\protected@file@percent }
\@writefile{toc}{\contentsline {subsection}{Psalm 119}{4}{}\protected@file@percent }
\@writefile{toc}{\contentsline {subsection}{Psalm 120}{5}{}\protected@file@percent }
\@writefile{toc}{\contentsline {subsection}{Psalm 121}{6}{}\protected@file@percent }
\@writefile{toc}{\contentsline {section}{\numberline {2.2}Psalmody in Advent}{7}{}\protected@file@percent }
\@writefile{toc}{\contentsline {subsection}{Psalm 119}{7}{}\protected@file@percent }
\@writefile{toc}{\contentsline {subsection}{Psalm 120}{8}{}\protected@file@percent }
\@writefile{toc}{\contentsline {subsection}{Psalm 121}{8}{}\protected@file@percent }
\@writefile{toc}{\contentsline {section}{\numberline {2.3}Psalmody in Christmas}{10}{}\protected@file@percent }
\@writefile{toc}{\contentsline {subsection}{Psalm 119}{10}{}\protected@file@percent }
\@writefile{toc}{\contentsline {subsection}{Psalm 120}{11}{}\protected@file@percent }
\@writefile{toc}{\contentsline {subsection}{Psalm 121}{11}{}\protected@file@percent }
\@writefile{lof}{\addvspace {10pt}}
\@writefile{lot}{\addvspace {10pt}}
\@writefile{toc}{\contentsline {chapter}{\chapternumberline {3}Little Chapter}{13}{}\protected@file@percent }
\newlabel{littlechapter}{{\M@TitleReference {3}{Little Chapter}}{13}}
\@writefile{lof}{\addvspace {10pt}}
\@writefile{lot}{\addvspace {10pt}}
\@writefile{toc}{\contentsline {chapter}{\chapternumberline {4}The End}{14}{}\protected@file@percent }
\@writefile{toc}{\contentsline {subsection}{Outside Advent:}{14}{}\protected@file@percent }
\@writefile{toc}{\contentsline {subsection}{During Advent:}{14}{}\protected@file@percent }
\@writefile{lof}{\addvspace {10pt}}
\@writefile{lot}{\addvspace {10pt}}
\@writefile{toc}{\contentsline {chapter}{\chapternumberline {5}Marian Antiphon}{16}{}\protected@file@percent }
\@writefile{toc}{\contentsline {section}{\numberline {5.1}Advent and Christmas}{16}{}\protected@file@percent }
\newlabel{almaredem}{{\M@TitleReference {5.1}{Advent and Christmas}}{16}}
\babel@aux{latin}{}
\babel@aux{british}{}
\babel@aux{latin}{}
\babel@aux{british}{}
\babel@aux{latin}{}
\babel@aux{british}{}
\babel@aux{latin}{}
\babel@aux{british}{}
\babel@aux{latin}{}
\babel@aux{british}{}
\babel@aux{latin}{}
\babel@aux{british}{}
\babel@aux{latin}{}
\babel@aux{british}{}
\babel@aux{latin}{}
\babel@aux{british}{}
\babel@aux{latin}{}
\babel@aux{british}{}
\babel@aux{latin}{}
\babel@aux{british}{}
\@writefile{toc}{\contentsline {section}{\numberline {5.2}Lent}{19}{}\protected@file@percent }
\newlabel{averegina}{{\M@TitleReference {5.2}{Lent}}{19}}
\babel@aux{latin}{}
\babel@aux{british}{}
\babel@aux{latin}{}
\babel@aux{british}{}
\babel@aux{latin}{}
\babel@aux{british}{}
\babel@aux{latin}{}
\babel@aux{british}{}
\babel@aux{latin}{}
\babel@aux{british}{}
\@writefile{toc}{\contentsline {section}{\numberline {5.3}Paschaltide}{20}{}\protected@file@percent }
\newlabel{reginacaeli}{{\M@TitleReference {5.3}{Paschaltide}}{20}}
\babel@aux{latin}{}
\babel@aux{british}{}
\babel@aux{latin}{}
\babel@aux{british}{}
\babel@aux{latin}{}
\babel@aux{british}{}
\babel@aux{latin}{}
\babel@aux{british}{}
\babel@aux{latin}{}
\babel@aux{british}{}
\@writefile{toc}{\contentsline {section}{\numberline {5.4}During the year}{22}{}\protected@file@percent }
\newlabel{salveregina}{{\M@TitleReference {5.4}{During the year}}{22}}
\babel@aux{latin}{}
\babel@aux{british}{}
\babel@aux{latin}{}
\babel@aux{british}{}
\babel@aux{latin}{}
\babel@aux{british}{}
\babel@aux{latin}{}
\babel@aux{british}{}
\babel@aux{latin}{}
\babel@aux{british}{}
\memsetcounter{lastsheet}{24}
\memsetcounter{lastpage}{24}
\gdef \@abspage@last{24}
